135.10, 1.00, 1.00 
145.80, 1.00, 1.00 
149.40, 1.00, 1.00 
146.10, 1.00, 1.00 
138.10, 1.00, 1.00 
146.50, 1.00, 1.00 
142.70, 1.00, 1.00 
142.00, 1.00, 1.00 
145.50, 1.00, 1.00 
145.50, 1.00, 1.00 
143.40, 1.00, 1.00 
138.70, 1.00, 1.00 
144.00, 1.00, 1.00 
142.40, 1.00, 1.00 
143.90, 1.00, 1.00 
158.40, 1.00, 1.00 
143.60, 1.00, 1.00 
148.40, 1.00, 1.00 
150.40, 1.00, 1.00 
147.80, 1.00, 1.00 
146.40, 1.00, 1.00 
146.80, 1.00, 1.00 
149.90, 1.00, 1.00 
151.00, 1.00, 1.00 
146.80, 1.00, 1.00 
146.80, 1.00, 1.00 
149.90, 1.00, 1.00 
151.20, 1.00, 1.00 
151.20, 1.00, 1.00 
151.20, 1.00, 1.00 
147.00, 1.00, 1.00 
144.30, 1.00, 1.00 
144.30, 1.00, 1.00 
142.50, 1.00, 1.00 
140.90, 1.00, 1.00 
139.00, 1.00, 1.00 
139.50, 1.00, 1.00 
147.40, 1.00, 1.00 
141.50, 1.00, 1.00 
147.40, 1.00, 1.00 
145.30, 1.00, 1.00 
153.20, 1.00, 1.00 
143.10, 1.00, 1.00 
140.10, 1.00, 1.00 
141.30, 1.00, 1.00 
153.50, 1.00, 1.00 
141.30, 1.00, 1.00 
142.50, 1.00, 1.00 
145.00, 1.00, 1.00 
153.20, 1.00, 1.00 
153.20, 1.00, 1.00 
147.70, 1.00, 1.00 
142.80, 1.00, 1.00 
150.20, 1.00, 1.00 
147.70, 1.00, 1.00 
147.70, 1.00, 1.00 
147.60, 1.00, 1.00 
147.70, 1.00, 1.00 
147.60, 1.00, 1.00 
143.40, 1.00, 1.00 
147.70, 1.00, 1.00 
142.60, 1.00, 1.00 
146.10, 1.00, 1.00 
142.30, 1.00, 1.00 
143.40, 1.00, 1.00 
150.20, 1.00, 1.00 
142.40, 1.00, 1.00 
143.90, 1.00, 1.00 
143.40, 1.00, 1.00 
144.60, 1.00, 1.00 
141.40, 1.00, 1.00 
143.20, 1.00, 1.00 
146.90, 1.00, 1.00 
146.50, 1.00, 1.00 
148.80, 1.00, 1.00 
148.50, 1.00, 1.00 
152.40, 1.00, 1.00 
146.70, 1.00, 1.00 
143.20, 1.00, 1.00 
144.00, 1.00, 1.00 
163.90, 1.00, 1.00 
143.90, 1.00, 1.00 
150.00, 1.00, 1.00 
144.40, 1.00, 1.00 
142.00, 1.00, 1.00 
142.80, 1.00, 1.00 
144.40, 1.00, 1.00 
140.90, 1.00, 1.00 
143.90, 1.00, 1.00 
144.40, 1.00, 1.00 
146.80, 1.00, 1.00 
144.40, 1.00, 1.00 
143.90, 1.00, 1.00 
144.40, 1.00, 1.00 
143.10, 1.00, 1.00 
150.70, 1.00, 1.00 
141.90, 1.00, 1.00 
142.30, 1.00, 1.00 
143.10, 1.00, 1.00 
142.40, 1.00, 1.00 
143.10, 1.00, 1.00 
144.90, 1.00, 1.00 
142.40, 1.00, 1.00 
147.80, 1.00, 1.00 
143.50, 1.00, 1.00 
147.70, 1.00, 1.00 
143.40, 1.00, 1.00 
140.30, 1.00, 1.00 
147.80, 1.00, 1.00 
144.40, 1.00, 1.00 
147.80, 1.00, 1.00 
140.80, 1.00, 1.00 
147.80, 1.00, 1.00 
147.70, 1.00, 1.00 
147.70, 1.00, 1.00 
145.20, 1.00, 1.00 
149.40, 1.00, 1.00 
146.00, 1.00, 1.00 
150.30, 1.00, 1.00 
145.70, 1.00, 1.00 
146.00, 1.00, 1.00 
152.20, 1.00, 1.00 
144.10, 1.00, 1.00 
137.40, 1.00, 1.00 
159.10, 1.00, 1.00 
143.80, 1.00, 1.00 
148.00, 1.00, 1.00 
146.90, 1.00, 1.00 
141.70, 1.00, 1.00 
146.90, 1.00, 1.00 
148.90, 1.00, 1.00 
143.30, 1.00, 1.00 
143.80, 1.00, 1.00 
148.90, 1.00, 1.00 
146.90, 1.00, 1.00 
146.90, 1.00, 1.00 
152.40, 1.00, 1.00 
148.90, 1.00, 1.00 
146.20, 1.00, 1.00 
147.00, 1.00, 1.00 
148.90, 1.00, 1.00 
143.80, 1.00, 1.00 
142.70, 1.00, 1.00 
148.90, 1.00, 1.00 
153.90, 1.00, 1.00 
146.50, 1.00, 1.00 
142.70, 1.00, 1.00 
145.10, 1.00, 1.00 
145.10, 1.00, 1.00 
145.20, 1.00, 1.00 
145.60, 1.00, 1.00 
142.80, 1.00, 1.00 
143.30, 1.00, 1.00 
145.60, 1.00, 1.00 
148.00, 1.00, 1.00 
151.20, 1.00, 1.00 
148.00, 1.00, 1.00 
146.30, 1.00, 1.00 
142.70, 1.00, 1.00 
145.40, 1.00, 1.00 
145.20, 1.00, 1.00 
145.20, 1.00, 1.00 
148.00, 1.00, 1.00 
142.50, 1.00, 1.00 
148.00, 1.00, 1.00 
146.40, 1.00, 1.00 
142.80, 1.00, 1.00 
141.60, 1.00, 1.00 
142.40, 1.00, 1.00 
142.60, 1.00, 1.00 
144.00, 1.00, 1.00 
138.00, 1.00, 1.00 
146.40, 1.00, 1.00 
153.10, 1.00, 1.00 
143.80, 1.00, 1.00 
140.70, 1.00, 1.00 
148.80, 1.00, 1.00 
143.80, 1.00, 1.00 
142.40, 1.00, 1.00 
147.50, 1.00, 1.00 
148.70, 1.00, 1.00 
148.80, 1.00, 1.00 
138.10, 1.00, 1.00 
148.70, 1.00, 1.00 
148.80, 1.00, 1.00 
147.50, 1.00, 1.00 
144.40, 1.00, 1.00 
148.80, 1.00, 1.00 
140.10, 1.00, 1.00 
142.40, 1.00, 1.00 
145.90, 1.00, 1.00 
145.90, 1.00, 1.00 
144.90, 1.00, 1.00 
142.30, 1.00, 1.00 
145.90, 1.00, 1.00 
143.20, 1.00, 1.00 
142.10, 1.00, 1.00 
141.40, 1.00, 1.00 
146.20, 1.00, 1.00 
147.70, 1.00, 1.00 
147.70, 1.00, 1.00 
147.90, 1.00, 1.00 
146.20, 1.00, 1.00 
146.20, 1.00, 1.00 
150.30, 1.00, 1.00 
147.90, 1.00, 1.00 
146.20, 1.00, 1.00 
145.80, 1.00, 1.00 
147.90, 1.00, 1.00 
146.20, 1.00, 1.00 
146.20, 1.00, 1.00 
146.20, 1.00, 1.00 
142.20, 1.00, 1.00 
146.20, 1.00, 1.00 
143.20, 1.00, 1.00 
148.70, 1.00, 1.00 
144.20, 1.00, 1.00 
146.10, 1.00, 1.00 
150.60, 1.00, 1.00 
147.50, 1.00, 1.00 
147.50, 1.00, 1.00 
146.10, 1.00, 1.00 
151.10, 1.00, 1.00 
151.10, 1.00, 1.00 
146.80, 1.00, 1.00 
147.50, 1.00, 1.00 
151.10, 1.00, 1.00 
150.70, 1.00, 1.00 
147.20, 1.00, 1.00 
147.90, 1.00, 1.00 
151.00, 1.00, 1.00 
143.90, 1.00, 1.00 
142.80, 1.00, 1.00 
145.20, 1.00, 1.00 
144.30, 1.00, 1.00 
147.20, 1.00, 1.00 
147.90, 1.00, 1.00 
147.20, 1.00, 1.00 
147.20, 1.00, 1.00 
147.90, 1.00, 1.00 
148.10, 1.00, 1.00 
140.60, 1.00, 1.00 
148.10, 1.00, 1.00 
147.50, 1.00, 1.00 
148.30, 1.00, 1.00 
141.20, 1.00, 1.00 
144.40, 1.00, 1.00 
149.40, 1.00, 1.00 
148.30, 1.00, 1.00 
149.40, 1.00, 1.00 
145.10, 1.00, 1.00 
142.20, 1.00, 1.00 
148.20, 1.00, 1.00 
148.20, 1.00, 1.00 
148.30, 1.00, 1.00 
148.20, 1.00, 1.00 
148.20, 1.00, 1.00 
143.80, 1.00, 1.00 
148.20, 1.00, 1.00 
143.20, 1.00, 1.00 
144.50, 1.00, 1.00 
144.50, 1.00, 1.00 
148.20, 1.00, 1.00 
142.60, 1.00, 1.00 
139.00, 1.00, 1.00 
148.20, 1.00, 1.00 
150.40, 1.00, 1.00 
144.50, 1.00, 1.00 
150.40, 1.00, 1.00 
143.50, 1.00, 1.00 
140.00, 1.00, 1.00 
140.50, 1.00, 1.00 
151.00, 1.00, 1.00 
150.40, 1.00, 1.00 
143.50, 1.00, 1.00 
144.30, 1.00, 1.00 
150.40, 1.00, 1.00 
143.50, 1.00, 1.00 
145.00, 1.00, 1.00 
148.20, 1.00, 1.00 
145.00, 1.00, 1.00 
146.30, 1.00, 1.00 
145.70, 1.00, 1.00 
145.00, 1.00, 1.00 
151.60, 1.00, 1.00 
139.90, 1.00, 1.00 
145.00, 1.00, 1.00 
151.60, 1.00, 1.00 
151.60, 1.00, 1.00 
149.70, 1.00, 1.00 
149.50, 1.00, 1.00 
151.60, 1.00, 1.00 
151.60, 1.00, 1.00 
151.60, 1.00, 1.00 
151.60, 1.00, 1.00 
143.90, 1.00, 1.00 
142.00, 1.00, 1.00 
151.70, 1.00, 1.00 
151.60, 1.00, 1.00 
140.70, 1.00, 1.00 
144.30, 1.00, 1.00 
151.60, 1.00, 1.00 
151.40, 1.00, 1.00 
146.10, 1.00, 1.00 
146.10, 1.00, 1.00 
147.30, 1.00, 1.00 
151.60, 1.00, 1.00 
151.60, 1.00, 1.00 
151.40, 1.00, 1.00 
146.70, 1.00, 1.00 
147.30, 1.00, 1.00 
147.20, 1.00, 1.00 
146.10, 1.00, 1.00 
144.00, 1.00, 1.00 
145.50, 1.00, 1.00 
146.10, 1.00, 1.00 
151.60, 1.00, 1.00 
146.70, 1.00, 1.00 
142.00, 1.00, 1.00 
143.10, 1.00, 1.00 
142.60, 1.00, 1.00 
141.10, 1.00, 1.00 
145.70, 1.00, 1.00 
141.30, 1.00, 1.00 
151.60, 1.00, 1.00 
142.00, 1.00, 1.00 
148.90, 1.00, 1.00 
141.80, 1.00, 1.00 
142.60, 1.00, 1.00 
142.00, 1.00, 1.00 
147.50, 1.00, 1.00 
142.40, 1.00, 1.00 
145.40, 1.00, 1.00 
142.60, 1.00, 1.00 
145.30, 1.00, 1.00 
150.70, 1.00, 1.00 
141.10, 1.00, 1.00 
145.60, 1.00, 1.00 
146.20, 1.00, 1.00 
148.50, 1.00, 1.00 
146.20, 1.00, 1.00 
139.60, 1.00, 1.00 
146.20, 1.00, 1.00 
141.30, 1.00, 1.00 
148.80, 1.00, 1.00 
147.80, 1.00, 1.00 
140.00, 1.00, 1.00 
146.20, 1.00, 1.00 
157.40, 1.00, 1.00 
141.80, 1.00, 1.00 
146.90, 1.00, 1.00 
144.80, 1.00, 1.00 
143.50, 1.00, 1.00 
144.60, 1.00, 1.00 
146.10, 1.00, 1.00 
141.40, 1.00, 1.00 
146.90, 1.00, 1.00 
146.90, 1.00, 1.00 
145.20, 1.00, 1.00 
142.60, 1.00, 1.00 
144.20, 1.00, 1.00 
146.10, 1.00, 1.00 
144.40, 1.00, 1.00 
157.40, 1.00, 1.00 
140.90, 1.00, 1.00 
145.00, 1.00, 1.00 
141.00, 1.00, 1.00 
142.30, 1.00, 1.00 
142.50, 1.00, 1.00 
140.90, 1.00, 1.00 
150.70, 1.00, 1.00 
148.10, 1.00, 1.00 
145.70, 1.00, 1.00 
143.70, 1.00, 1.00 
150.60, 1.00, 1.00 
150.70, 1.00, 1.00 
143.30, 1.00, 1.00 
147.00, 1.00, 1.00 
144.30, 1.00, 1.00 
145.70, 1.00, 1.00 
142.50, 1.00, 1.00 
147.70, 1.00, 1.00 
147.00, 1.00, 1.00 
147.00, 1.00, 1.00 
140.00, 1.00, 1.00 
141.50, 1.00, 1.00 
150.70, 1.00, 1.00 
143.30, 1.00, 1.00 
142.10, 1.00, 1.00 
147.00, 1.00, 1.00 
147.20, 1.00, 1.00 
142.60, 1.00, 1.00 
147.00, 1.00, 1.00 
141.40, 1.00, 1.00 
147.00, 1.00, 1.00 
147.00, 1.00, 1.00 
150.70, 1.00, 1.00 
142.20, 1.00, 1.00 
147.20, 1.00, 1.00 
147.00, 1.00, 1.00 
